asap\monitoring\dao\DemandeRepository.class
asap\monitoring\dao\UtilisateurRepository.class
asap\monitoring\data\DataSeed.class
asap\monitoring\dao\ScrumMasterRepository.class
asap\monitoring\dao\ProjetRepository.class
asap\monitoring\dao\ApplicationRepository.class
asap\monitoring\dao\EquipeRepository.class
asap\monitoring\data\DataSeed$1.class
asap\monitoring\dao\ReleaseRepository.class
asap\monitoring\dao\DeveloppeurRepository.class
asap\monitoring\dao\SprintRepository.class
asap\monitoring\dao\AdminRepository.class
